<svg xmlns="http://www.w3.org/2000/svg" width="12.225" height="17.562" viewBox="0 0 12.225 17.562">
  <path id="Path_30" data-name="Path 30" d="M4082.667,380l8,10,8-10" transform="translate(-379.375 4099.448) rotate(-90)" fill="none" stroke="#000" stroke-width="2"/>
</svg>
